{
	"customerNumber": "DE-11556-01-00001",
	"externalId": "DE-11556-01-00001",
	"email": "dealer.de.11556.01.00001@mindcurv.com",
	"firstName": "Christian",
	"lastName": "Jumpertz",
	"title": "Mr.",
	"password": "1234",
	"companyName": "Porsche Niederlassung Stuttgart GmbH",
	"vatId":"DE 812993506 ",
	"dateOfBirth": "1968-06-01",
	"addresses": [
		{
			"key": "dealerAddress_DE-11556-01-00001-001",
			"title": "Mr.",
			"firstName": "Christian",
			"lastName": "Jumpertz",
			"streetName": "Porscheplatz",
			"streetNumber": "9",
			"postalCode": "70435",
			"city": "Stuttgart",
			"state": "BW",
			"country": "DE",
			"company": "Porsche Niederlassung Stuttgart GmbH",
			"phone": "+49 711 911-26220",
			"email": "info.pzstuttgart@porsche.de",
			"fax": "+49 711 911-26262"
		}
	],
	"custom": {
		"type": {
			"key": "customer-pfxDealer",
			"typeId": "type"
		},
		"fields": {

		}
	},
	"shippingAddressIds": [],
	"billingAddressIds": [],
	"isEmailVerified": true
}
