{
  "name": "PFX Vehicle Product",
  "key": "pfx_vehicle_product",
  "description": "This type describes vehicles from finder.",
  "attributes": [
    {
      "name": "vin",
      "label": {
        "en": "vin",
        "de": "vin"
      },
      "isRequired": false,
      "type": {
        "name": "text"
      },
      "attributeConstraint": "SameForAll",
      "isSearchable": true,
      "inputHint": "SingleLine"
    },
    {
      "name": "porscheCode",
      "label": {
        "en": "porscheCode",
        "de": "porscheCode"
      },
      "isRequired": false,
      "type": {
        "name": "text"
      },
      "attributeConstraint": "SameForAll",
      "isSearchable": true,
      "inputHint": "SingleLine"
    },
    {
      "name": "dealer",
      "label": {
        "en": "dealer",
        "de": "dealer"
      },
      "inputTip": {
        "en": "dealer",
        "de": "Händler"
      },
      "isRequired": false,
      "type": {
        "name": "reference",
        "referenceTypeId": "channel"
      },
      "attributeConstraint": "SameForAll",
      "isSearchable": false,
      "inputHint": "SingleLine",
      "displayGroup": "Other"
    },
    {
      "name": "mileage",
      "label": {
        "en": "mileage",
        "de": "mileage"
      },
      "isRequired": false,
      "type": {
        "name": "number"
      },
      "attributeConstraint": "SameForAll",
      "isSearchable": true,
      "inputHint": "SingleLine"
    },
    {
      "name": "mileageUnit",
      "label": {
        "en": "mileage unit",
        "de": "mileage unit"
      },
      "isRequired": false,
      "type": {
        "name": "enum",
        "values": [
          {
            "key": "km",
            "label": "km"
          },
          {
            "key": "mi",
            "label": "mi"
          }
        ]
      },
      "attributeConstraint": "SameForAll",
      "isSearchable": true,
      "inputHint": "SingleLine"
    },
    {
      "name": "newVehicle",
      "label": {
        "en": "newVehicle",
        "de": "newVehicle"
      },
      "isRequired": false,
      "type": {
        "name": "boolean"
      },
      "attributeConstraint": "SameForAll",
      "isSearchable": true,
      "inputHint": "SingleLine"
    },
    {
      "name": "modelYear",
      "label": {
        "en": "modelYear",
        "de": "modelYear"
      },
      "isRequired": false,
      "type": {
        "name": "number"
      },
      "attributeConstraint": "SameForAll",
      "isSearchable": true,
      "inputHint": "SingleLine"
    },
    {
      "name": "registrationDate",
      "label": {
        "en": "registrationDate",
        "de": "registrationDate"
      },
      "isRequired": false,
      "type": {
        "name": "date"
      },
      "attributeConstraint": "SameForAll",
      "isSearchable": true,
      "inputHint": "SingleLine"
    },
    {
      "name": "availableFrom",
      "label": {
        "en": "availableFrom",
        "de": "availableFrom"
      },
      "isRequired": false,
      "type": {
        "name": "date"
      },
      "attributeConstraint": "SameForAll",
      "isSearchable": true,
      "inputHint": "SingleLine"
    },
    {
      "name": "stockNumber",
      "label": {
        "en": "stockNumber",
        "de": "stockNumber"
      },
      "isRequired": false,
      "type": {
        "name": "text"
      },
      "attributeConstraint": "SameForAll",
      "isSearchable": true,
      "inputHint": "SingleLine"
    },
    {
      "name": "vatDeductible",
      "label": {
        "en": "vatDeductible",
        "de": "vatDeductible"
      },
      "isRequired": false,
      "type": {
        "name": "boolean"
      },
      "attributeConstraint": "SameForAll",
      "isSearchable": true,
      "inputHint": "SingleLine"
    },
    {
      "name": "exteriorColorName",
      "label": {
        "en": "exteriorColorName",
        "de": "exteriorColorName"
      },
      "isRequired": false,
      "type": {
        "name": "text"
      },
      "attributeConstraint": "SameForAll",
      "isSearchable": true,
      "inputHint": "SingleLine"
    },
    {
      "name": "exteriorColorHexCode",
      "label": {
        "en": "exteriorColorHexCode",
        "de": "exteriorColorHexCode"
      },
      "isRequired": false,
      "type": {
        "name": "text"
      },
      "attributeConstraint": "SameForAll",
      "isSearchable": true,
      "inputHint": "SingleLine"
    },
    {
      "name": "exteriorColorMetallic",
      "label": {
        "en": "exteriorColorMetallic",
        "de": "exteriorColorMetallic"
      },
      "isRequired": false,
      "type": {
        "name": "boolean"
      },
      "attributeConstraint": "SameForAll",
      "isSearchable": true,
      "inputHint": "SingleLine"
    },
    {
      "name": "interiorEquipmentName",
      "label": {
        "en": "interiorEquipmentName",
        "de": "interiorEquipmentName"
      },
      "isRequired": false,
      "type": {
        "name": "text"
      },
      "attributeConstraint": "SameForAll",
      "isSearchable": true,
      "inputHint": "SingleLine"
    },
    {
      "name": "interiorEquipmentColorHexCode",
      "label": {
        "en": "interiorEquipmentColorHexCode",
        "de": "interiorEquipmentColorHexCode"
      },
      "isRequired": false,
      "type": {
        "name": "text"
      },
      "attributeConstraint": "SameForAll",
      "isSearchable": true,
      "inputHint": "SingleLine"
    },
    {
      "name": "interiorSecondaryColorHexCode",
      "label": {
        "en": "interiorSecondaryColorHexCode",
        "de": "interiorSecondaryColorHexCode"
      },
      "isRequired": false,
      "type": {
        "name": "text"
      },
      "attributeConstraint": "SameForAll",
      "isSearchable": true,
      "inputHint": "SingleLine"
    },
    {
      "name": "equipmentCategories",
      "label": {
        "en": "equipmentCategories",
        "de": "equipmentCategories"
      },
      "isRequired": false,
      "type": {
        "name": "set",
        "elementType": {
          "name": "text"
        }
      },
      "attributeConstraint": "SameForAll",
      "isSearchable": true,
      "inputHint": "MultiLine"
    },
    {
      "name": "otherEquipment",
      "label": {
        "en": "otherEquipment",
        "de": "otherEquipment"
      },
      "isRequired": false,
      "type": {
        "name": "set",
        "elementType": {
          "name": "text"
        }
      },
      "attributeConstraint": "SameForAll",
      "isSearchable": true,
      "inputHint": "MultiLine"
    },
    {
      "name": "numberOfPreviousOwners",
      "label": {
        "en": "numberOfPreviousOwners",
        "de": "numberOfPreviousOwners"
      },
      "isRequired": false,
      "type": {
        "name": "number"
      },
      "attributeConstraint": "SameForAll",
      "isSearchable": true,
      "inputHint": "SingleLine"
    },
    {
      "name": "historyNonSmoker",
      "label": {
        "en": "historyNonSmoker",
        "de": "historyNonSmoker"
      },
      "isRequired": false,
      "type": {
        "name": "boolean"
      },
      "attributeConstraint": "SameForAll",
      "isSearchable": true,
      "inputHint": "SingleLine"
    },
    {
      "name": "historyAccidentFree",
      "label": {
        "en": "historyAccidentFree",
        "de": "historyAccidentFree"
      },
      "isRequired": false,
      "type": {
        "name": "boolean"
      },
      "attributeConstraint": "SameForAll",
      "isSearchable": true,
      "inputHint": "SingleLine"
    },
    {
      "name": "porscheApproved",
      "label": {
        "en": "porscheApproved",
        "de": "porscheApproved"
      },
      "isRequired": false,
      "type": {
        "name": "boolean"
      },
      "attributeConstraint": "SameForAll",
      "isSearchable": true,
      "inputHint": "SingleLine"
    },
    {
      "name": "orderTypeKey",
      "label": {
        "en": "orderTypeKey",
        "de": "orderTypeKey"
      },
      "isRequired": false,
      "type": {
        "name": "text"
      },
      "attributeConstraint": "SameForAll",
      "isSearchable": true,
      "inputHint": "SingleLine"
    },
    {
      "name": "orderTypeCode",
      "label": {
        "en": "orderTypeCode",
        "de": "orderTypeCode"
      },
      "isRequired": false,
      "type": {
        "name": "text"
      },
      "attributeConstraint": "SameForAll",
      "isSearchable": true,
      "inputHint": "SingleLine"
    },
    {
      "name": "orderTypeActive",
      "label": {
        "en": "orderTypeActive",
        "de": "orderTypeActive"
      },
      "isRequired": false,
      "type": {
        "name": "boolean"
      },
      "attributeConstraint": "SameForAll",
      "isSearchable": true,
      "inputHint": "SingleLine"
    },
    {
      "name": "modelSeriesKey",
      "label": {
        "en": "modelSeriesKey",
        "de": "modelSeriesKey"
      },
      "isRequired": false,
      "type": {
        "name": "text"
      },
      "attributeConstraint": "SameForAll",
      "isSearchable": true,
      "inputHint": "SingleLine"
    },
    {
      "name": "modelSeriesCode",
      "label": {
        "en": "modelSeriesCode",
        "de": "modelSeriesCode"
      },
      "isRequired": false,
      "type": {
        "name": "text"
      },
      "attributeConstraint": "SameForAll",
      "isSearchable": true,
      "inputHint": "SingleLine"
    },
    {
      "name": "modelSeriesName",
      "label": {
        "en": "modelSeriesName",
        "de": "modelSeriesName"
      },
      "isRequired": false,
      "type": {
        "name": "text"
      },
      "attributeConstraint": "SameForAll",
      "isSearchable": true,
      "inputHint": "SingleLine"
    },
    {
      "name": "marketPlaceKey",
      "label": {
        "en": "marketPlaceKey",
        "de": "marketPlaceKey"
      },
      "isRequired": false,
      "type": {
        "name": "text"
      },
      "attributeConstraint": "SameForAll",
      "isSearchable": true,
      "inputHint": "SingleLine"
    },
    {
      "name": "leasingEnabled",
      "label": {
        "en": "leasingEnabled",
        "de": "leasingEnabled"
      },
      "isRequired": false,
      "type": {
        "name": "boolean"
      },
      "attributeConstraint": "SameForAll",
      "isSearchable": true,
      "inputHint": "SingleLine"
    },
    {
      "name": "financingEnabled",
      "label": {
        "en": "financingEnabled",
        "de": "financingEnabled"
      },
      "isRequired": false,
      "type": {
        "name": "boolean"
      },
      "attributeConstraint": "SameForAll",
      "isSearchable": true,
      "inputHint": "SingleLine"
    },
    {
      "name": "maintenanceBeforeDeliver",
      "label": {
        "en": "maintenanceBeforeDeliver",
        "de": "maintenanceBeforeDeliver"
      },
      "isRequired": false,
      "type": {
        "name": "boolean"
      },
      "attributeConstraint": "SameForAll",
      "isSearchable": true,
      "inputHint": "SingleLine"
    },
    {
      "name": "registrationBeforeDelivery",
      "label": {
        "en": "registrationBeforeDelivery",
        "de": "registrationBeforeDelivery"
      },
      "isRequired": false,
      "type": {
        "name": "boolean"
      },
      "attributeConstraint": "SameForAll",
      "isSearchable": true,
      "inputHint": "SingleLine"
    },
    {
      "name": "includedWarranty",
      "label": {
        "en": "includedWarranty",
        "de": "includedWarranty"
      },
      "isRequired": false,
      "type": {
        "name": "set",
        "elementType": {
          "name": "text"
        }
      },
      "attributeConstraint": "SameForAll",
      "isSearchable": true,
      "inputHint": "SingleLine"
    },
    {
      "name": "energyLabelAvailable",
      "label": {
        "en": "energyLabelAvailable",
        "de": "energyLabelAvailable"
      },
      "isRequired": false,
      "type": {
        "name": "boolean"
      },
      "attributeConstraint": "SameForAll",
      "isSearchable": true,
      "inputHint": "SingleLine"
    },
    {
      "name": "driveTrain",
      "label": {
        "en": "driveTrain",
        "de": "driveTrain"
      },
      "isRequired": false,
      "type": {
        "name": "enum",
        "values": [
          {
            "key": "All-wheel-drive",
            "label": "All-wheel-drive"
          },
          {
            "key": "Rear-Wheel Drive",
            "label": "Rear-Wheel Drive"
          }
        ]
      },
      "attributeConstraint": "SameForAll",
      "isSearchable": true,
      "inputHint": "SingleLine"
    },
    {
      "name": "engineType",
      "label": {
        "en": "engineType",
        "de": "engineType"
      },
      "isRequired": false,
      "type": {
        "name": "enum",
        "values": [
          {
            "key": "Petrol",
            "label": "Petrol"
          },
          {
            "key": "Diesel",
            "label": "Diesel"
          },
          {
            "key": "Hybrid",
            "label": "Hybrid"
          }
        ]
      },
      "attributeConstraint": "SameForAll",
      "isSearchable": true,
      "inputHint": "SingleLine"
    },
    {
      "name": "power",
      "label": {
        "en": "power",
        "de": "Leistung"
      },
      "isRequired": false,
      "type": {
        "name": "text"
      },
      "attributeConstraint": "SameForAll",
      "isSearchable": true,
      "inputHint": "SingleLine"
    },
    {
      "name": "orderType",
      "label": {
        "en": "orderType",
        "de": "orderType"
      },
      "isRequired": false,
      "type": {
        "name": "enum",
        "values": [
          {
            "key": "buy",
            "label": "buy"
          },
          {
            "key": "reserve",
            "label": "reserve"
          }
        ]
      },
      "attributeConstraint": "SameForAll",
      "isSearchable": true,
      "inputHint": "SingleLine"
    },
    {
      "name": "relatedModel",
      "label": {
        "en": "relatedModel",
        "de": "relatedModel"
      },
      "isRequired": false,
      "type": {
        "name": "reference",
        "referenceTypeId": "product"
      },
      "attributeConstraint": "SameForAll",
      "isSearchable": true,
      "inputHint": "SingleLine",
      "displayGroup": "Other"
    },
    {
      "name": "relatedProducts",
      "label": {
        "en": "relatedProducts"
      },
      "type": {
        "name": "set",
        "elementType": {
          "name": "reference",
          "referenceTypeId": "product"
        }
      },
      "isRequired": false,
      "attributeConstraint": "SameForAll",
      "isSearchable": false,
      "inputHint": "SingleLine"
    },
    {
      "name": "connectServiceAvailable",
      "label": {
        "en": "connectServiceAvailable",
        "de": "connectServiceAvailable"
      },
      "isRequired": false,
      "type": {
        "name": "boolean"
      },
      "attributeConstraint": "SameForAll",
      "isSearchable": true,
      "inputHint": "SingleLine"
    },
    {
      "name": "availableServicesStatus",
      "label": {
        "en": "availableServicesStatus"
      },
      "type": {
        "name": "reference",
        "referenceTypeId": "key-value-document"
      },
      "isRequired": false,
      "attributeConstraint": "SameForAll",
      "isSearchable": false,
      "inputHint": "SingleLine"
    },
    {
      "name": "publicationId",
      "label": {
        "en": "publicationId",
        "de": "publicationId"
      },
      "isRequired": false,
      "type": {
        "name": "number"
      },
      "attributeConstraint": "None",
      "isSearchable": true,
      "inputHint": "SingleLine"
    }
  ]
}
